…
    ## Rows: 33788 Columns: 18
    ## ── Column specification ────────────────────────────────────────────────────────
    ## Delimiter: ","
    ## chr (10): zip, city, state_id, state_name, county_fips, county_name, county_...
    ## dbl  (4): lat, lng, population, density
    ## lgl  (4): zcta, parent_zcta, imprecise, military
    ## 
    ## ℹ Use `spec()` to retrieve the full column specification for this data.
    ## ℹ Specify the column types or set `show_col_types = FALSE` to quiet this message.

``` r
df_zip
```

    ## # A tibble: 33,788 × 18
    ##    PostalCode   lat   lng city  state_id state_name zcta  parent_zcta population
    ##    <chr>      <dbl> <dbl> <chr> <chr>    <chr>      <lgl> <lgl>            <dbl>
    ##  1 00601       18.2 -66.8 Adju… PR       Puerto Ri… TRUE  NA               17126
    ##  2 00602       18.4 -67.2 Agua… PR       Puerto Ri… TRUE  NA               37895
    ##  3 00603       18.5 -67.1 Agua… PR       Puerto Ri… TRUE  NA               49136
    ##  4 00606       18.2 -66.9 Mari… PR       Puerto Ri… TRUE  NA                5751
    ##  5 00610       18.3 -67.1 Anas… PR       Puerto Ri… TRUE  NA               26153
    ##  6 00611       18.3 -66.8 Ange… PR       Puerto Ri… TRUE  NA                1283
    ##  7 00612       18.4 -66.7 Arec… PR       Puerto Ri… TRUE  NA               64090
    ##  8 00616       18.4 -66.7 Baja… PR       Puerto Ri… TRUE  NA               10186
    ##  9 00617       18.4 -66.6 Barc… PR       Puerto Ri… TRUE  NA               22803
    ## 10 00622       18.0 -67.2 Boqu… PR       Puerto Ri… TRUE  NA                7751
    ## # ℹ 33,778 more rows
    ## # ℹ 9 more variables: density <dbl>, county_fips <chr>, county_name <chr>,
    ## #   county_weights <chr>, county_names_all <chr>, county_fips_all <chr>,
    ## #   imprecise <lgl>, military <lgl>, timezone <chr>
…
client_posts <-
  client_first_posts %>% 
  ungroup() %>% 
  select(PostText)
client_posts
```

    ## # A tibble: 45,908 × 1
    ##    PostText                                                                     
    ##    <chr>                                                                        
    ##  1 "hello and thank you first for participating with this service:I have a ###.…
    ##  2 "Hi, I am separated on the process of signing the MSA. My husband fire an at…
    ##  3 "Hi ###,Good question. I can assist you with this. To confirm, are you okay …
    ##  4 "My husband moved out of the house on ###,after stating he wanted to seperat…
    ##  5 "I am looking to Change my ######mo old daughters last name. She has my maid…
    ##  6 "IN THE CIRUIT COURTTWENTIETH JUDICIAL CIRCUITST. ### COUNTY, ILLINOIS  ### …
    ##  7 "Dear Ms. Long,Apparently you do not understand the legal situation or the j…
    ##  8 "Hi ### - To answer your first question:  No.  You need a court order.  You …
    ##  9 "###,    Before you send these, you should prepare either a paper document, …
    ## 10 "I was granted a divorce on ### and in the divorce my husband the husband wi…
    ## # ℹ 45,898 more rows
…
